Exercises Laboratory Session 01
…
## Rows: 11528 Columns: 4
## -- Column specification --------------------------------------------------------
## Delimiter: ","
## chr (2): Entity, Code
## dbl (2): Year, Coal production (TWh)
## 
## i Use `spec()` to retrieve the full column specification for this data.
## i Specify the column types or set `show_col_types = FALSE` to quiet this message.

colnames(coal_prod) <- c(names(coal_prod[1:3]), 'Production')

coal_prod

## # A tibble: 11,528 x 4
##    Entity      Code   Year Production
##    <chr>       <chr> <dbl>      <dbl>
##  1 Afghanistan AFG    1900          0
##  2 Afghanistan AFG    1901          0
##  3 Afghanistan AFG    1902          0
##  4 Afghanistan AFG    1903          0
##  5 Afghanistan AFG    1904          0
##  6 Afghanistan AFG    1905          0
##  7 Afghanistan AFG    1906          0
##  8 Afghanistan AFG    1907          0
##  9 Afghanistan AFG    1908          0
## 10 Afghanistan AFG    1909          0
## # ... with 11,518 more rows
…
